{
    "shell_config_description" : ["A list of key=value pairs, where key is a variable to be defined in shell parameters and",
                                  "value is a unique variable (key) within the imsi config. So basically a mapping."],
    "shell_config" : {
        "runid" : "{{runid}}",
        "RUNID" : "{{runid}}",
        "parent_runid" : "{{parent_runid}}",
        "parent_branch_time" : "{{parent_branch_time}}",
        "model_config" : "{{model_config}}",
        "WRK_DIR" :"{{work_dir}}",
        "EXEC_STORAGE_DIR" : "{{work_dir}}/bin",
        "CANESM_SRC_ROOT" : "{{source_path}}",
        "RUNPATH" : "{{storage_dir}}/{{runid}}/output",
        "DATAPATH_DB" : "{{storage_dir}}/{{runid}}/output/database_{{runid}}.db:{{input_file_database}}",
        "PATH" : "${CANESM_SRC_ROOT}/CCCma_tools/scripts/subproc/:${CANESM_SRC_ROOT}/CCCma_tools/scripts/comm:${EXEC_STORAGE_DIR}:$WRK_DIR/bin/bin_diag:${CANESM_SRC_ROOT}/CanDIAG/diag4:${PATH}" ,
        "MPI_EXEC" : "{{mpi_exec}}",
        "canam_rtd_staging_dir" : "{{canam_rtd_staging_dir}}",
        "cannemo_rtd_staging_dir" : "{{cannemo_rtd_staging_dir}}",
        "ncconv_env_setup_command" : "{{ncconv_env_setup_command}}",
        "source_id"  : "{{source_id}}",
        "variant_id" : "{{variant_id}}",
        "activity_id"   : "{{activity_id}}",
        "experiment_id" : "{{experiment_id}}",
        "subexperiment_id" : "{{subexperiment_id}}"
    }
}
