{
    "utility_config" : {
        "files_to_extract": {
            "save_restart_files.sh" : "models/save_restart_files.sh",
            "imsi-tmp-compile.sh" :  "imsi-tmp-compile.sh"
        }
    }
}