{
    "experiments" : {
        "cmip6-abrupt-4xCO2":{
            "experiment_id": "abrupt-4xCO2", 
            "inherits_from": "cmip6-piControl",
            "start_time": "1850",
            "end_time":"1919",
            "components": {
                "CanAM": {
                    "namelists" : {
                        "canam_settings": {
                            "phys_options" : {
                                "co2_mult" : "4.0"
                            }              
                        }
                    }
                }    
            }
        }
    }
}